…
## Search for occurrence data


```r
occ_search(scientificName = "Ursus americanus", limit = 50)
#> Records found [15793] 
#> Records returned [50] 
#> No. unique hierarchies [1] 
#> No. media records [50] 
#> No. facets [0] 
#> Args [limit=50, offset=0, scientificName=Ursus americanus, fields=all] 
#> # A tibble: 50 x 76
#>    key   scientificName decimalLatitude decimalLongitude issues datasetKey
#>    <chr> <chr>                    <dbl>            <dbl> <chr>  <chr>     
#>  1 2543… Ursus america…            42.5            -73.2 cdrou… 50c9509d-…
#>  2 2550… Ursus america…            35.7            -83.5 cdrou… 50c9509d-…
#>  3 2550… Ursus america…            31.3           -110.  cdrou… 50c9509d-…
#>  4 2550… Ursus america…            35.1           -118.  cdrou… 50c9509d-…
#>  5 2550… Ursus america…            25.2           -101.  cdrou… 50c9509d-…
#>  6 2550… Ursus america…            39.4           -120.  cdrou… 50c9509d-…
#>  7 2557… Ursus america…            43.8            -72.6 gass84 50c9509d-…
#>  8 2557… Ursus america…            34.0            -92.6 cdrou… 50c9509d-…
#>  9 2557… Ursus america…            34.0            -92.6 cdrou… 50c9509d-…
#> 10 2557… Ursus america…            34.0            -92.6 cdrou… 50c9509d-…
#> # … with 40 more rows, and 70 more variables: publishingOrgKey <chr>,
#> #   installationKey <chr>, publishingCountry <chr>, protocol <chr>,
#> #   lastCrawled <chr>, lastParsed <chr>, crawlId <int>, extensions <chr>,
#> #   basisOfRecord <chr>, taxonKey <int>, kingdomKey <int>, phylumKey <int>,
#> #   classKey <int>, orderKey <int>, familyKey <int>, genusKey <int>,
#> #   speciesKey <int>, acceptedTaxonKey <int>, acceptedScientificName <chr>,
#> #   kingdom <chr>, phylum <chr>, order <chr>, family <chr>, genus <chr>,
#> #   species <chr>, genericName <chr>, specificEpithet <chr>, taxonRank <chr>,
#> #   taxonomicStatus <chr>, dateIdentified <chr>,
…
