…
Then pass to `occ_search()`


```r
(res <- occ_search(taxonKey=key, limit=100))
#> Records found [45844] 
#> Records returned [100] 
#> No. unique hierarchies [1] 
#> No. media records [84] 
#> No. facets [0] 
#> Args [limit=100, offset=0, taxonKey=9206251, fields=all] 
#> # A tibble: 100 x 103
#>    key   scientificName decimalLatitude decimalLongitude issues datasetKey
#>    <chr> <chr>                    <dbl>            <dbl> <chr>  <chr>     
#>  1 1990… Helianthus an…            52.6            10.1  cdrou… 6ac3f774-…
#>  2 2235… Helianthus an…            51.2             4.45 ""     7f5e4129-…
#>  3 1990… Helianthus an…            26.2           -98.2  cdrou… 50c9509d-…
#>  4 2247… Helianthus an…            58.4            11.9  cdrou… 38b4c89f-…
#>  5 1993… Helianthus an…            34.0          -117.   cdrou… 50c9509d-…
#>  6 1986… Helianthus an…            27.7           -97.3  cdrou… 50c9509d-…
#>  7 1993… Helianthus an…            33.4          -118.   cdrou… 50c9509d-…
#>  8 1990… Helianthus an…            53.9            10.9  cdrou… 6ac3f774-…
#>  9 1986… Helianthus an…            33.8          -118.   cdrou… 50c9509d-…
#> 10 2247… Helianthus an…            55.7            14.2  gass84 38b4c89f-…
#> # … with 90 more rows, and 97 more variables: publishingOrgKey <chr>,
#> #   networkKeys <chr>, installationKey <chr>, publishingCountry <chr>,
#> #   protocol <chr>, lastCrawled <chr>, lastParsed <chr>, crawlId <int>,
#> #   extensions <chr>, basisOfRecord <chr>, taxonKey <int>,
#> #   kingdomKey <int>, phylumKey <int>, classKey <int>, orderKey <int>,
#> #   familyKey <int>, genusKey <int>, speciesKey <int>,
#> #   acceptedTaxonKey <int>, acceptedScientificName <chr>, kingdom <chr>,
#> #   phylum <chr>, order <chr>, family <chr>, genus <chr>, species <chr>,
#> #   genericName <chr>, specificEpithet <chr>, taxonRank <chr>,
…
## Parse data based on issues

Now that we know a bit about GBIF issues, you can parse your data based on issues. Using the data generated above, and using the function `%>%` imported from `magrittr`, we can get only data with the issue `gass84`, or `GEODETIC_DATUM_ASSUMED_WGS84` (Note how the records returned goes down to 98 instead of the initial 100).


```r
res %>%
  occ_issues(gass84)
#> Records found [45844] 
#> Records returned [99] 
#> No. unique hierarchies [1] 
#> No. media records [84] 
#> No. facets [0] 
#> Args [limit=100, offset=0, taxonKey=9206251, fields=all] 
#> # A tibble: 99 x 103
#>    key   scientificName decimalLatitude decimalLongitude issues datasetKey
#>    <chr> <chr>                    <dbl>            <dbl> <chr>  <chr>     
#>  1 1990… Helianthus an…            52.6             10.1 cdrou… 6ac3f774-…
#>  2 1990… Helianthus an…            26.2            -98.2 cdrou… 50c9509d-…
#>  3 2247… Helianthus an…            58.4             11.9 cdrou… 38b4c89f-…
#>  4 1993… Helianthus an…            34.0           -117.  cdrou… 50c9509d-…
#>  5 1986… Helianthus an…            27.7            -97.3 cdrou… 50c9509d-…
#>  6 1993… Helianthus an…            33.4           -118.  cdrou… 50c9509d-…
#>  7 1990… Helianthus an…            53.9             10.9 cdrou… 6ac3f774-…
#>  8 1986… Helianthus an…            33.8           -118.  cdrou… 50c9509d-…
#>  9 2247… Helianthus an…            55.7             14.2 gass84 38b4c89f-…
#> 10 2236… Helianthus an…            26.2            -98.2 cdrou… 50c9509d-…
#> # … with 89 more rows, and 97 more variables: publishingOrgKey <chr>,
#> #   networkKeys <chr>, installationKey <chr>, publishingCountry <chr>,
#> #   protocol <chr>, lastCrawled <chr>, lastParsed <chr>, crawlId <int>,
#> #   extensions <chr>, basisOfRecord <chr>, taxonKey <int>,
#> #   kingdomKey <int>, phylumKey <int>, classKey <int>, orderKey <int>,
#> #   familyKey <int>, genusKey <int>, speciesKey <int>,
#> #   acceptedTaxonKey <int>, acceptedScientificName <chr>, kingdom <chr>,
#> #   phylum <chr>, order <chr>, family <chr>, genus <chr>, species <chr>,
#> #   genericName <chr>, specificEpithet <chr>, taxonRank <chr>,
…
Note also that we've set up `occ_issues()` so that you can pass in issue names without having to quote them, thereby speeding up data cleaning.

Next, we can remove data with certain issues just as easily by using a `-` sign in front of the variable, like this, removing data with issues `depunl` and `mdatunl`.


```r
res %>%
  occ_issues(-depunl, -mdatunl)
#> Records found [45844] 
#> Records returned [100] 
#> No. unique hierarchies [1] 
#> No. media records [84] 
#> No. facets [0] 
#> Args [limit=100, offset=0, taxonKey=9206251, fields=all] 
#> # A tibble: 100 x 103
#>    key   scientificName decimalLatitude decimalLongitude issues datasetKey
#>    <chr> <chr>                    <dbl>            <dbl> <chr>  <chr>     
#>  1 1990… Helianthus an…            52.6            10.1  cdrou… 6ac3f774-…
#>  2 2235… Helianthus an…            51.2             4.45 ""     7f5e4129-…
#>  3 1990… Helianthus an…            26.2           -98.2  cdrou… 50c9509d-…
#>  4 2247… Helianthus an…            58.4            11.9  cdrou… 38b4c89f-…
#>  5 1993… Helianthus an…            34.0          -117.   cdrou… 50c9509d-…
#>  6 1986… Helianthus an…            27.7           -97.3  cdrou… 50c9509d-…
#>  7 1993… Helianthus an…            33.4          -118.   cdrou… 50c9509d-…
#>  8 1990… Helianthus an…            53.9            10.9  cdrou… 6ac3f774-…
#>  9 1986… Helianthus an…            33.8          -118.   cdrou… 50c9509d-…
#> 10 2247… Helianthus an…            55.7            14.2  gass84 38b4c89f-…
#> # … with 90 more rows, and 97 more variables: publishingOrgKey <chr>,
#> #   networkKeys <chr>, installationKey <chr>, publishingCountry <chr>,
#> #   protocol <chr>, lastCrawled <chr>, lastParsed <chr>, crawlId <int>,
#> #   extensions <chr>, basisOfRecord <chr>, taxonKey <int>,
#> #   kingdomKey <int>, phylumKey <int>, classKey <int>, orderKey <int>,
#> #   familyKey <int>, genusKey <int>, speciesKey <int>,
#> #   acceptedTaxonKey <int>, acceptedScientificName <chr>, kingdom <chr>,
#> #   phylum <chr>, order <chr>, family <chr>, genus <chr>, species <chr>,
#> #   genericName <chr>, specificEpithet <chr>, taxonRank <chr>,
…
