…
Then pass to `occ_search()`


```r
(res <- occ_search(taxonKey=key, limit=100))
#> Records found [14820] 
#> Records returned [100] 
#> No. unique hierarchies [1] 
#> No. media records [2] 
#> No. facets [0] 
#> Args [limit=100, offset=0, taxonKey=9206251, fields=all] 
#> # A tibble: 100 × 98
#>                 name        key decimalLatitude decimalLongitude
#>                <chr>      <int>           <dbl>            <dbl>
#> 1  Helianthus annuus 1437798345        51.03513         4.518690
#> 2  Helianthus annuus 1437786250        50.91574         3.579770
#> 3  Helianthus annuus 1454554504        50.22000         9.630000
#> 4  Helianthus annuus 1273001624        59.32739        10.803912
#> 5  Helianthus annuus 1454554470        49.32000        12.000000
#> 6  Helianthus annuus 1272997264        58.66189         6.721671
#> 7  Helianthus annuus 1454553080        49.75000         9.300000
#> 8  Helianthus annuus 1272995969        59.83241        10.763219
#> 9  Helianthus annuus 1454553865              NA               NA
#> 10 Helianthus annuus 1454555306        48.21000        12.080000
#> # ... with 90 more rows, and 94 more variables: issues <chr>,
#> #   datasetKey <chr>, publishingOrgKey <chr>, publishingCountry <chr>,
#> #   protocol <chr>, lastCrawled <chr>, lastParsed <chr>, crawlId <int>,
#> #   extensions <chr>, basisOfRecord <chr>, taxonKey <int>,
#> #   kingdomKey <int>, phylumKey <int>, classKey <int>, orderKey <int>,
#> #   familyKey <int>, genusKey <int>, speciesKey <int>,
#> #   scientificName <chr>, kingdom <chr>, phylum <chr>, order <chr>,
#> #   family <chr>, genus <chr>, species <chr>, genericName <chr>,
#> #   specificEpithet <chr>, taxonRank <chr>,
…
## Parse data based on issues

Now that we know a bit about GBIF issues, you can parse your data based on issues. Using the data generated above, and using the function `%>%` imported from `magrittr`, we can get only data with the issue `gass84`, or `GEODETIC_DATUM_ASSUMED_WGS84` (Note how the records returned goes down to 98 instead of the initial 100).


```r
res %>%
  occ_issues(gass84)
#> Records found [14820] 
#> Records returned [36] 
#> No. unique hierarchies [1] 
#> No. media records [2] 
#> No. facets [0] 
#> Args [limit=100, offset=0, taxonKey=9206251, fields=all] 
#> # A tibble: 36 × 98
#>                 name        key decimalLatitude decimalLongitude
#>                <chr>      <int>           <dbl>            <dbl>
#> 1  Helianthus annuus 1273001624        59.32739        10.803912
#> 2  Helianthus annuus 1272997264        58.66189         6.721671
#> 3  Helianthus annuus 1272995969        59.83241        10.763219
#> 4  Helianthus annuus 1323229476        59.08521        11.036315
#> 5  Helianthus annuus 1323241585        59.57240        10.847597
#> 6  Helianthus annuus 1273024475        59.08521        11.036315
#> 7  Helianthus annuus 1323261789        58.66189         6.721671
#> 8  Helianthus annuus 1305561325        48.57490         7.759700
#> 9  Helianthus annuus 1425285026        59.21189        10.284695
#> 10 Helianthus annuus 1323319952        59.08830        10.060628
#> # ... with 26 more rows, and 94 more variables: issues <chr>,
#> #   datasetKey <chr>, publishingOrgKey <chr>, publishingCountry <chr>,
#> #   protocol <chr>, lastCrawled <chr>, lastParsed <chr>, crawlId <int>,
#> #   extensions <chr>, basisOfRecord <chr>, taxonKey <int>,
#> #   kingdomKey <int>, phylumKey <int>, classKey <int>, orderKey <int>,
#> #   familyKey <int>, genusKey <int>, speciesKey <int>,
#> #   scientificName <chr>, kingdom <chr>, phylum <chr>, order <chr>,
#> #   family <chr>, genus <chr>, species <chr>, genericName <chr>,
#> #   specificEpithet <chr>, taxonRank <chr>,
…
Note also that we've set up `occ_issues()` so that you can pass in issue names without having to quote them, thereby speeding up data cleaning.

Next, we can remove data with certain issues just as easily by using a `-` sign in front of the variable, like this, removing data with issues `depunl` and `mdatunl`.


```r
res %>%
  occ_issues(-depunl, -mdatunl)
#> Records found [14820] 
#> Records returned [100] 
#> No. unique hierarchies [1] 
#> No. media records [2] 
#> No. facets [0] 
#> Args [limit=100, offset=0, taxonKey=9206251, fields=all] 
#> # A tibble: 100 × 98
#>                 name        key decimalLatitude decimalLongitude
#>                <chr>      <int>           <dbl>            <dbl>
#> 1  Helianthus annuus 1437798345        51.03513         4.518690
#> 2  Helianthus annuus 1437786250        50.91574         3.579770
#> 3  Helianthus annuus 1454554504        50.22000         9.630000
#> 4  Helianthus annuus 1273001624        59.32739        10.803912
#> 5  Helianthus annuus 1454554470        49.32000        12.000000
#> 6  Helianthus annuus 1272997264        58.66189         6.721671
#> 7  Helianthus annuus 1454553080        49.75000         9.300000
#> 8  Helianthus annuus 1272995969        59.83241        10.763219
#> 9  Helianthus annuus 1454553865              NA               NA
#> 10 Helianthus annuus 1454555306        48.21000        12.080000
#> # ... with 90 more rows, and 94 more variables: issues <chr>,
#> #   datasetKey <chr>, publishingOrgKey <chr>, publishingCountry <chr>,
#> #   protocol <chr>, lastCrawled <chr>, lastParsed <chr>, crawlId <int>,
#> #   extensions <chr>, basisOfRecord <chr>, taxonKey <int>,
#> #   kingdomKey <int>, phylumKey <int>, classKey <int>, orderKey <int>,
#> #   familyKey <int>, genusKey <int>, speciesKey <int>,
#> #   scientificName <chr>, kingdom <chr>, phylum <chr>, order <chr>,
#> #   family <chr>, genus <chr>, species <chr>, genericName <chr>,
#> #   specificEpithet <chr>, taxonRank <chr>,
…
