…
Then pass to `occ_search()`


```r
(res <- occ_search(taxonKey=key, limit=100))
#> Records found [87309] 
#> Records returned [100] 
#> No. unique hierarchies [1] 
#> No. media records [100] 
#> No. facets [0] 
#> Args [limit=100, offset=0, taxonKey=9206251, fields=all] 
#> # A tibble: 100 x 101
#>    key    scientificName  decimalLatitude decimalLongitude issues  datasetKey   
#>    <chr>  <chr>                     <dbl>            <dbl> <chr>   <chr>        
#>  1 30179… Helianthus ann…           29.4            -98.5  cdroun… 50c9509d-22c…
#>  2 30181… Helianthus ann…          -29.6             30.4  cdroun… 50c9509d-22c…
#>  3 30181… Helianthus ann…           50.8              4.10 cdroun… 50c9509d-22c…
#>  4 30316… Helianthus ann…           34.3           -118.   cdroun… 50c9509d-22c…
#>  5 30316… Helianthus ann…            3.04           102.   cdroun… 50c9509d-22c…
#>  6 30318… Helianthus ann…           35.1           -107.   cdroun… 50c9509d-22c…
#>  7 30319… Helianthus ann…           33.9           -117.   cdroun… 50c9509d-22c…
#>  8 30319… Helianthus ann…          -38.0            -59.2  cdroun… 50c9509d-22c…
#>  9 30320… Helianthus ann…            8.60           -83.4  cdroun… 50c9509d-22c…
#> 10 30320… Helianthus ann…           44.3            -78.4  cdroun… 50c9509d-22c…
#> # … with 90 more rows, and 95 more variables: publishingOrgKey <chr>,
#> #   installationKey <chr>, publishingCountry <chr>, protocol <chr>,
#> #   lastCrawled <chr>, lastParsed <chr>, crawlId <int>,
#> #   hostingOrganizationKey <chr>, basisOfRecord <chr>, occurrenceStatus <chr>,
#> #   taxonKey <int>, kingdomKey <int>, phylumKey <int>, classKey <int>,
#> #   orderKey <int>, familyKey <int>, genusKey <int>, speciesKey <int>,
#> #   acceptedTaxonKey <int>, acceptedScientificName <chr>, kingdom <chr>,
#> #   phylum <chr>, order <chr>, family <chr>, genus <chr>, species <chr>,
#> #   genericName <chr>, specificEpithet <chr>, taxonRank <chr>,
…
## Parse data based on issues

Now that we know a bit about GBIF issues, you can parse your data based on issues. Using the data generated above, and using the function `%>%` imported from `magrittr`, we can get only data with the issue `gass84`, or `GEODETIC_DATUM_ASSUMED_WGS84` (Note how the records returned goes down to 98 instead of the initial 100).


```r
res %>%
  occ_issues(gass84)
#> Records found [87309] 
#> Records returned [99] 
#> No. unique hierarchies [1] 
#> No. media records [100] 
#> No. facets [0] 
#> Args [limit=100, offset=0, taxonKey=9206251, fields=all] 
#> # A tibble: 99 x 101
#>    key    scientificName  decimalLatitude decimalLongitude issues  datasetKey   
#>    <chr>  <chr>                     <dbl>            <dbl> <chr>   <chr>        
#>  1 30179… Helianthus ann…           29.4            -98.5  cdroun… 50c9509d-22c…
#>  2 30181… Helianthus ann…          -29.6             30.4  cdroun… 50c9509d-22c…
#>  3 30181… Helianthus ann…           50.8              4.10 cdroun… 50c9509d-22c…
#>  4 30316… Helianthus ann…           34.3           -118.   cdroun… 50c9509d-22c…
#>  5 30316… Helianthus ann…            3.04           102.   cdroun… 50c9509d-22c…
#>  6 30318… Helianthus ann…           35.1           -107.   cdroun… 50c9509d-22c…
#>  7 30319… Helianthus ann…           33.9           -117.   cdroun… 50c9509d-22c…
#>  8 30319… Helianthus ann…          -38.0            -59.2  cdroun… 50c9509d-22c…
#>  9 30320… Helianthus ann…            8.60           -83.4  cdroun… 50c9509d-22c…
#> 10 30320… Helianthus ann…           44.3            -78.4  cdroun… 50c9509d-22c…
#> # … with 89 more rows, and 95 more variables: publishingOrgKey <chr>,
#> #   installationKey <chr>, publishingCountry <chr>, protocol <chr>,
#> #   lastCrawled <chr>, lastParsed <chr>, crawlId <int>,
#> #   hostingOrganizationKey <chr>, basisOfRecord <chr>, occurrenceStatus <chr>,
#> #   taxonKey <int>, kingdomKey <int>, phylumKey <int>, classKey <int>,
#> #   orderKey <int>, familyKey <int>, genusKey <int>, speciesKey <int>,
#> #   acceptedTaxonKey <int>, acceptedScientificName <chr>, kingdom <chr>,
#> #   phylum <chr>, order <chr>, family <chr>, genus <chr>, species <chr>,
#> #   genericName <chr>, specificEpithet <chr>, taxonRank <chr>,
…
Note also that we've set up `occ_issues()` so that you can pass in issue names without having to quote them, thereby speeding up data cleaning.

Next, we can remove data with certain issues just as easily by using a `-` sign in front of the variable, like this, removing data with issues `depunl` and `mdatunl`.


```r
res %>%
  occ_issues(-depunl, -mdatunl)
#> Records found [87309] 
#> Records returned [100] 
#> No. unique hierarchies [1] 
#> No. media records [100] 
#> No. facets [0] 
#> Args [limit=100, offset=0, taxonKey=9206251, fields=all] 
#> # A tibble: 100 x 101
#>    key    scientificName  decimalLatitude decimalLongitude issues  datasetKey   
#>    <chr>  <chr>                     <dbl>            <dbl> <chr>   <chr>        
#>  1 30179… Helianthus ann…           29.4            -98.5  cdroun… 50c9509d-22c…
#>  2 30181… Helianthus ann…          -29.6             30.4  cdroun… 50c9509d-22c…
#>  3 30181… Helianthus ann…           50.8              4.10 cdroun… 50c9509d-22c…
#>  4 30316… Helianthus ann…           34.3           -118.   cdroun… 50c9509d-22c…
#>  5 30316… Helianthus ann…            3.04           102.   cdroun… 50c9509d-22c…
#>  6 30318… Helianthus ann…           35.1           -107.   cdroun… 50c9509d-22c…
#>  7 30319… Helianthus ann…           33.9           -117.   cdroun… 50c9509d-22c…
#>  8 30319… Helianthus ann…          -38.0            -59.2  cdroun… 50c9509d-22c…
#>  9 30320… Helianthus ann…            8.60           -83.4  cdroun… 50c9509d-22c…
#> 10 30320… Helianthus ann…           44.3            -78.4  cdroun… 50c9509d-22c…
#> # … with 90 more rows, and 95 more variables: publishingOrgKey <chr>,
#> #   installationKey <chr>, publishingCountry <chr>, protocol <chr>,
#> #   lastCrawled <chr>, lastParsed <chr>, crawlId <int>,
#> #   hostingOrganizationKey <chr>, basisOfRecord <chr>, occurrenceStatus <chr>,
#> #   taxonKey <int>, kingdomKey <int>, phylumKey <int>, classKey <int>,
#> #   orderKey <int>, familyKey <int>, genusKey <int>, speciesKey <int>,
#> #   acceptedTaxonKey <int>, acceptedScientificName <chr>, kingdom <chr>,
#> #   phylum <chr>, order <chr>, family <chr>, genus <chr>, species <chr>,
#> #   genericName <chr>, specificEpithet <chr>, taxonRank <chr>,
…
