…
Then pass to `occ_search()`


```r
(res <- occ_search(taxonKey=key, limit=100))
#> Records found [21970] 
#> Records returned [100] 
#> No. unique hierarchies [1] 
#> No. media records [63] 
#> No. facets [0] 
#> Args [taxonKey=3119195, limit=100, offset=0, fields=all] 
#> # A tibble: 100 × 77
#>                 name        key decimalLatitude decimalLongitude
#>                <chr>      <int>           <dbl>            <dbl>
#> 1  Helianthus annuus 1249279611        34.04810       -117.79884
#> 2  Helianthus annuus 1315048347        34.04377       -116.94136
#> 3  Helianthus annuus 1305118889        18.40386        -66.04487
#> 4  Helianthus annuus 1249286909        32.58747        -97.10081
#> 5  Helianthus annuus 1253308332        29.67463        -95.44804
#> 6  Helianthus annuus 1262375813        29.82586        -95.45604
#> 7  Helianthus annuus 1262385911        32.78328        -96.70352
#> 8  Helianthus annuus 1265544678        32.58747        -97.10081
#> 9  Helianthus annuus 1262379231        34.04911       -117.80066
#> 10 Helianthus annuus 1265560496        34.12861       -118.20700
#> # ... with 90 more rows, and 73 more variables: issues <chr>,
#> #   datasetKey <chr>, publishingOrgKey <chr>, publishingCountry <chr>,
#> #   protocol <chr>, lastCrawled <chr>, lastParsed <chr>, crawlId <int>,
#> #   extensions <chr>, basisOfRecord <chr>, taxonKey <int>,
#> #   kingdomKey <int>, phylumKey <int>, classKey <int>, orderKey <int>,
#> #   familyKey <int>, genusKey <int>, speciesKey <int>,
#> #   scientificName <chr>, kingdom <chr>, phylum <chr>, order <chr>,
#> #   family <chr>, genus <chr>, species <chr>, genericName <chr>,
#> #   specificEpithet <chr>, taxonRank <chr>, dateIdentified <chr>,
…
## Parse data based on issues

Now that we know a bit about GBIF issues, you can parse your data based on issues. Using the data generated above, and using the function `%>%` imported from `magrittr`, we can get only data with the issue `gass84`, or `GEODETIC_DATUM_ASSUMED_WGS84` (Note how the records returned goes down to 98 instead of the initial 100).


```r
res %>%
  occ_issues(gass84)
#> Records found [21970] 
#> Records returned [99] 
#> No. unique hierarchies [1] 
#> No. media records [63] 
#> No. facets [0] 
#> Args [taxonKey=3119195, limit=100, offset=0, fields=all] 
#> # A tibble: 99 × 77
#>                 name        key decimalLatitude decimalLongitude
#>                <chr>      <int>           <dbl>            <dbl>
#> 1  Helianthus annuus 1249279611        34.04810       -117.79884
#> 2  Helianthus annuus 1315048347        34.04377       -116.94136
#> 3  Helianthus annuus 1305118889        18.40386        -66.04487
#> 4  Helianthus annuus 1249286909        32.58747        -97.10081
#> 5  Helianthus annuus 1253308332        29.67463        -95.44804
#> 6  Helianthus annuus 1262375813        29.82586        -95.45604
#> 7  Helianthus annuus 1262385911        32.78328        -96.70352
#> 8  Helianthus annuus 1265544678        32.58747        -97.10081
#> 9  Helianthus annuus 1262379231        34.04911       -117.80066
#> 10 Helianthus annuus 1265560496        34.12861       -118.20700
#> # ... with 89 more rows, and 73 more variables: issues <chr>,
#> #   datasetKey <chr>, publishingOrgKey <chr>, publishingCountry <chr>,
#> #   protocol <chr>, lastCrawled <chr>, lastParsed <chr>, crawlId <int>,
#> #   extensions <chr>, basisOfRecord <chr>, taxonKey <int>,
#> #   kingdomKey <int>, phylumKey <int>, classKey <int>, orderKey <int>,
#> #   familyKey <int>, genusKey <int>, speciesKey <int>,
#> #   scientificName <chr>, kingdom <chr>, phylum <chr>, order <chr>,
#> #   family <chr>, genus <chr>, species <chr>, genericName <chr>,
#> #   specificEpithet <chr>, taxonRank <chr>, dateIdentified <chr>,
…
Note also that we've set up `occ_issues()` so that you can pass in issue names without having to quote them, thereby speeding up data cleaning.

Next, we can remove data with certain issues just as easily by using a `-` sign in front of the variable, like this, removing data with issues `depunl` and `mdatunl`.


```r
res %>%
  occ_issues(-depunl, -mdatunl)
#> Records found [21970] 
#> Records returned [100] 
#> No. unique hierarchies [1] 
#> No. media records [63] 
#> No. facets [0] 
#> Args [taxonKey=3119195, limit=100, offset=0, fields=all] 
#> # A tibble: 100 × 77
#>                 name        key decimalLatitude decimalLongitude
#>                <chr>      <int>           <dbl>            <dbl>
#> 1  Helianthus annuus 1249279611        34.04810       -117.79884
#> 2  Helianthus annuus 1315048347        34.04377       -116.94136
#> 3  Helianthus annuus 1305118889        18.40386        -66.04487
#> 4  Helianthus annuus 1249286909        32.58747        -97.10081
#> 5  Helianthus annuus 1253308332        29.67463        -95.44804
#> 6  Helianthus annuus 1262375813        29.82586        -95.45604
#> 7  Helianthus annuus 1262385911        32.78328        -96.70352
#> 8  Helianthus annuus 1265544678        32.58747        -97.10081
#> 9  Helianthus annuus 1262379231        34.04911       -117.80066
#> 10 Helianthus annuus 1265560496        34.12861       -118.20700
#> # ... with 90 more rows, and 73 more variables: issues <chr>,
#> #   datasetKey <chr>, publishingOrgKey <chr>, publishingCountry <chr>,
#> #   protocol <chr>, lastCrawled <chr>, lastParsed <chr>, crawlId <int>,
#> #   extensions <chr>, basisOfRecord <chr>, taxonKey <int>,
#> #   kingdomKey <int>, phylumKey <int>, classKey <int>, orderKey <int>,
#> #   familyKey <int>, genusKey <int>, speciesKey <int>,
#> #   scientificName <chr>, kingdom <chr>, phylum <chr>, order <chr>,
#> #   family <chr>, genus <chr>, species <chr>, genericName <chr>,
#> #   specificEpithet <chr>, taxonRank <chr>, dateIdentified <chr>,
…
