…
```r
out$names[2]
#> $<NA>
#> NULL
```

Search for a genus


```r
z <- name_lookup(query='Cnaemidophorus', rank="genus")
z$data
#> # A tibble: 24 x 35
#>       key scientificName datasetKey parentKey parent kingdom phylum order family
#>     <int> <chr>          <chr>          <int> <chr>  <chr>   <chr>  <chr> <chr> 
#>  1 1.24e8 Cnaemidophorus fab88965-… 104446806 Ptero… Metazoa Arthr… Lepi… Ptero…
#>  2 1.58e8 Cnaemidophorus 4cec8fef-… 157904443 Ptero… Animal… Arthr… Lepi… Ptero…
#>  3 1.69e8 Cnaemidophorus 4b3e4a71-… 168525701 Ptero… Animal… Arthr… Lepi… Ptero…
#>  4 1.59e8 Cnaemidophorus 23905003-… 159439401 Ptero… Animal… Arthr… Lepi… Ptero…
#>  5 1.77e8 Cnaemidophorus 16c3f9cb-… 100557623 Ptero… <NA>    <NA>   Lepi… Ptero…
#>  6 1.77e8 Cnaemidophorus 4dd32523-… 177104950 Ptero… Animal… Arthr… Lepi… Ptero…
#>  7 1.77e8 Cnaemidophorus 848271aa-… 177132660 Lepid… Animal… <NA>   Lepi… <NA>  
#>  8 1.77e8 Cnaemidophorus cbb6498e-… 176943160 Ptero… Animal… Arthr… Lepi… Ptero…
#>  9 1.23e8 Cnaemidophoru… 90d9e8a6-… 123394987 Ptero… Animal… Arthr… Lepi… Ptero…
#> 10 1.77e8 Cnaemidophoru… 38e1da4f-… 177131894 Ptero… Animal… Arthr… Lepi… Ptero…
#> # … with 14 more rows, and 26 more variables: genus <chr>, kingdomKey <int>,
#> #   phylumKey <int>, classKey <int>, orderKey <int>, familyKey <int>,
#> #   genusKey <int>, canonicalName <chr>, nameType <chr>, taxonomicStatus <chr>,
#> #   rank <chr>, origin <chr>, numDescendants <int>, numOccurrences <int>,
#> #   taxonID <chr>, habitats <chr>, nomenclaturalStatus <chr>,
#> #   threatStatuses <chr>, synonym <lgl>, class <chr>, nubKey <int>,
#> #   authorship <chr>, constituentKey <chr>, publishedIn <chr>, extinct <lgl>,
#> #   accordingTo <chr>
```

Search for the class mammalia


```r
w <- name_lookup(query='mammalia')
w$data
#> # A tibble: 100 x 25
#>       key scientificName datasetKey nubKey parentKey parent canonicalName
#>     <int> <chr>          <chr>       <int>     <int> <chr>  <chr>        
#>  1 1.14e8 Mammalia       bd0a2b6d-…    359 114079410 Anima… Mammalia     
#>  2 1.52e8 Mammalia       10608bbc-…    359 152172480 Chord… Mammalia     
#>  3 1.52e8 Mammalia       97b48148-…    359 152168085 Chord… Mammalia     
#>  4 1.23e8 Mammalia       90d9e8a6-…    359 123221530 Gnath… Mammalia     
#>  5 1.50e8 Mammalia       f2faaa4c-…    359 149678160 Chord… Mammalia     
#>  6 1.35e8 Mammalia       bc1a1eb3-…    359 134993150 Chord… Mammalia     
#>  7 1.55e8 Mammalia       7438332f-…    359 154531452 Chord… Mammalia     
#>  8 1.59e8 Mammalia       45aeea93-…    359 158964490 Chord… Mammalia     
#>  9 1.60e8 Mammalia       e1f7fc27-…    359 159542105 Chord… Mammalia     
#> 10 1.59e8 Mammalia       eba383bf-…    359 159450483 Chord… Mammalia     
#> # … with 90 more rows, and 18 more variables: authorship <chr>, nameType <chr>,
#> #   taxonomicStatus <chr>, origin <chr>, numDescendants <int>,
#> #   numOccurrences <int>, habitats <lgl>, nomenclaturalStatus <lgl>,
#> #   threatStatuses <chr>, synonym <lgl>, kingdom <chr>, phylum <chr>,
#> #   kingdomKey <int>, phylumKey <int>, classKey <int>, rank <chr>, class <chr>,
#> #   taxonID <chr>
```

Look up the species Helianthus annuus


```r
m <- name_lookup(query = 'Helianthus annuus', rank="species")
m$data
#> # A tibble: 100 x 41
#>       key scientificName datasetKey  nubKey parentKey parent kingdom phylum
#>     <int> <chr>          <chr>        <int>     <int> <chr>  <chr>   <chr> 
#>  1 1.35e8 Helianthus an… 29d2d5a6-… 9206251 168341218 Aster… Plantae Trach…
#>  2 1.28e8 Helianthus an… 41c06f1a-… 9206251 146770884 Amara… Plantae <NA>  
#>  3 1.15e8 Helianthus an… ee2aac07-… 9206251 144238801 Helia… Plantae Trach…
#>  4 1.35e8 Helianthus an… f82a4f7f-… 9206251 167773411 Aster… Plantae Trach…
#>  5 1.46e8 Helianthus an… 3f5e930b-… 9206251 157140516 Helia… Plantae Angio…
#>  6 1.03e8 Helianthus an… fab88965-…      NA 103340270 Helia… Viridi… Strep…
#>  7 1.63e8 Helianthus an… 88217638-… 9206251 163398972 Aster… Plantae Trach…
#>  8 1.46e8 Helianthus an… 6a97172b-… 9206251 147653302 Helia… <NA>    <NA>  
#>  9 1.60e8 Helianthus an… 39f36f10-… 9206251 164560273 Helia… Plantae Magno…
#> 10 1.35e8 Helianthus an… 85183816-… 9206251 167772928 Aster… Plantae Trach…
#> # … with 90 more rows, and 33 more variables: order <chr>, family <chr>,
#> #   species <chr>, kingdomKey <int>, phylumKey <int>, classKey <int>,
#> #   orderKey <int>, familyKey <int>, speciesKey <int>, canonicalName <chr>,
#> #   nameType <chr>, taxonomicStatus <chr>, rank <chr>, origin <chr>,
#> #   numDescendants <int>, numOccurrences <int>, taxonID <chr>, habitats <chr>,
#> #   nomenclaturalStatus <chr>, threatStatuses <chr>, synonym <lgl>,
#> #   class <chr>, authorship <chr>, genus <chr>, genusKey <int>,
#> #   acceptedKey <int>, accepted <chr>, publishedIn <chr>, accordingTo <chr>,
#> #   constituentKey <chr>, basionymKey <int>, basionym <chr>, extinct <lgl>
```
…
The function `name_suggest()` is optimized for speed, and gives back suggested names based on query parameters.


```r
head( name_suggest(q='Puma concolor') )
#> $data
#> # A tibble: 33 x 3
#>        key canonicalName                rank      
#>      <int> <chr>                        <chr>     
#>  1 2435099 Puma concolor                SPECIES   
#>  2 8860878 Puma concolor capricornensis SUBSPECIES
#>  3 6164618 Puma concolor browni         SUBSPECIES
#>  4 8951716 Puma concolor borbensis      SUBSPECIES
#>  5 6164624 Puma concolor costaricensis  SUBSPECIES
#>  6 6164603 Puma concolor missoulensis   SUBSPECIES
#>  7 6164589 Puma concolor anthonyi       SUBSPECIES
#>  8 7193927 Puma concolor concolor       SUBSPECIES
#>  9 6164591 Puma concolor kaibabensis    SUBSPECIES
#> 10 9156584 Puma concolor patagonica     SUBSPECIES
#> # … with 23 more rows
…
