Interface to the Global 'Biodiversity' Information Facility API • rgbif
…
install.packages('openssl')
install.packages('rgeos')
install.packages('rgbif')

Search for occurrence data

occ_search(scientificName = "Ursus americanus", limit = 50)
#> Records found [12622] 
#> Records returned [50] 
#> No. unique hierarchies [1] 
#> No. media records [50] 
#> No. facets [0] 
#> Args [limit=50, offset=0, scientificName=Ursus americanus, fields=all] 
#> # A tibble: 50 x 74
#>    key   scientificName decimalLatitude decimalLongitude issues datasetKey
#>    <chr> <chr>                    <dbl>            <dbl> <chr>  <chr>     
#>  1 1990… Ursus america…            44.9            -62.7 cdrou… 50c9509d-…
#>  2 1990… Ursus america…            40.9           -121.  gass84 50c9509d-…
#>  3 2006… Ursus america…            31.5           -110.  cdrou… 50c9509d-…
#>  4 1986… Ursus america…            30.1           -103.  cdrou… 50c9509d-…
#>  5 1990… Ursus america…            45.4            -93.2 cdrou… 50c9509d-…
#>  6 1990… Ursus america…            35.7            -76.6 cdrou… 50c9509d-…
#>  7 1990… Ursus america…            33.1            -91.9 cdrou… 50c9509d-…
#>  8 1990… Ursus america…            35.6            -82.9 cdrou… 50c9509d-…
#>  9 1990… Ursus america…            29.2            -81.8 cdrou… 50c9509d-…
#> 10 1990… Ursus america…            45.4            -93.1 cdrou… 50c9509d-…
#> # … with 40 more rows, and 68 more variables: publishingOrgKey <chr>,
#> #   networkKeys <chr>, installationKey <chr>, publishingCountry <chr>,
#> #   protocol <chr>, lastCrawled <chr>, lastParsed <chr>, crawlId <int>,
#> #   extensions <chr>, basisOfRecord <chr>, taxonKey <int>,
#> #   kingdomKey <int>, phylumKey <int>, classKey <int>, orderKey <int>,
#> #   familyKey <int>, genusKey <int>, speciesKey <int>,
#> #   acceptedTaxonKey <int>, acceptedScientificName <chr>, kingdom <chr>,
#> #   phylum <chr>, order <chr>, family <chr>, genus <chr>, species <chr>,
#> #   genericName <chr>, specificEpithet <chr>, taxonRank <chr>,
…
