Downloading data from GBIF • rgbif
…
This only download data to your machine - it does not read it into R. You can now move on to importing into R.

Import data into R

Pass the output of occ_download_get directly to occ_download_import - they can be piped together if you like.

occ_download_get("0000796-171109162308116") %>% occ_download_import()
# OR
dat <- occ_download_get("0000796-171109162308116")
occ_download_import(dat)
#> # A tibble: 1,425 x 235
#>        gbifID abstract accessRights accrualMethod accrualPeriodicity
#>         <int>    <lgl>        <chr>         <lgl>              <lgl>
#>  1 1667184715       NA                         NA                 NA
#>  2 1667182218       NA                         NA                 NA
#>  3 1667179996       NA                         NA                 NA
#>  4 1667179527       NA                         NA                 NA
#>  5 1667171607       NA                         NA                 NA
#>  6 1667165448       NA                         NA                 NA
#>  7 1667163154       NA                         NA                 NA
#>  8 1667162324       NA                         NA                 NA
#>  9 1667162162       NA                         NA                 NA
#> 10 1667161552       NA                         NA                 NA
#> # ... with 1,415 more rows, and 230 more variables: accrualPolicy <lgl>,
#> #   alternative <lgl>, audience <lgl>, available <lgl>,
#> #   bibliographicCitation <lgl>, conformsTo <lgl>, contributor <lgl>,
#> #   coverage <lgl>, created <lgl>, creator <lgl>, date <lgl>,
#> #   dateAccepted <lgl>, dateCopyrighted <lgl>, dateSubmitted <lgl>,
#> #   description <lgl>, educationLevel <lgl>, extent <lgl>, format <lgl>,
#> #   hasFormat <lgl>, hasPart <lgl>, hasVersion <lgl>, identifier <chr>,
…
