Cleaning data using GBIF issues • rgbif
…
Get taxon key for Helianthus annuus

(key <- name_suggest(q='Helianthus annuus', rank='species')$key[1])
#> [1] 9206251

Then pass to occ_search()

(res <- occ_search(taxonKey=key, limit=100))
#> Records found [42034] 
#> Records returned [100] 
#> No. unique hierarchies [1] 
#> No. media records [85] 
#> No. facets [0] 
#> Args [limit=100, offset=0, taxonKey=9206251, fields=all] 
#> # A tibble: 100 x 97
#>    name     key decimalLatitude decimalLongitude issues datasetKey
#>    <chr>  <int>           <dbl>            <dbl> <chr>  <chr>     
#>  1 Heli… 1.81e9            52.6             10.1 cdrou… 6ac3f774-…
#>  2 Heli… 1.81e9            25.6           -100.  cdrou… 50c9509d-…
#>  3 Heli… 1.82e9            59.8             17.5 gass8… 38b4c89f-…
#>  4 Heli… 1.84e9            34.1           -116.  gass84 50c9509d-…
#>  5 Heli… 1.82e9            56.6             16.6 cdrou… 38b4c89f-…
#>  6 Heli… 1.81e9            25.7           -100.  cdrou… 50c9509d-…
#>  7 Heli… 1.82e9            56.6             16.4 cdrou… 38b4c89f-…
#>  8 Heli… 1.81e9            32.0           -102.  cdrou… 50c9509d-…
#>  9 Heli… 1.84e9            33.9           -117.  cdrou… 50c9509d-…
#> 10 Heli… 1.84e9             0                0   cucdm… d2470ef8-…
#> # ... with 90 more rows, and 91 more variables: publishingOrgKey <chr>,
#> #   networkKeys <chr>, installationKey <chr>, publishingCountry <chr>,
#> #   protocol <chr>, lastCrawled <chr>, lastParsed <chr>, crawlId <int>,
#> #   extensions <chr>, basisOfRecord <chr>, taxonKey <int>,
#> #   kingdomKey <int>, phylumKey <int>, classKey <int>, orderKey <int>,
#> #   familyKey <int>, genusKey <int>, speciesKey <int>,
#> #   acceptedTaxonKey <int>, scientificName <chr>,
#> #   acceptedScientificName <chr>, kingdom <chr>, phylum <chr>,
#> #   order <chr>, family <chr>, genus <chr>, species <chr>,
…
The content for this information comes from http://gbif.github.io/gbif-api/apidocs/org/gbif/api/vocabulary/OccurrenceIssue.html.

Parse data based on issues

Now that we know a bit about GBIF issues, you can parse your data based on issues. Using the data generated above, and using the function %>% imported from magrittr, we can get only data with the issue gass84, or GEODETIC_DATUM_ASSUMED_WGS84 (Note how the records returned goes down to 98 instead of the initial 100).

res %>%
  occ_issues(gass84)
#> Records found [42034] 
#> Records returned [99] 
#> No. unique hierarchies [1] 
#> No. media records [85] 
#> No. facets [0] 
#> Args [limit=100, offset=0, taxonKey=9206251, fields=all] 
#> # A tibble: 99 x 97
#>    name     key decimalLatitude decimalLongitude issues datasetKey
#>    <chr>  <int>           <dbl>            <dbl> <chr>  <chr>     
#>  1 Heli… 1.81e9            52.6             10.1 cdrou… 6ac3f774-…
#>  2 Heli… 1.81e9            25.6           -100.  cdrou… 50c9509d-…
#>  3 Heli… 1.82e9            59.8             17.5 gass8… 38b4c89f-…
#>  4 Heli… 1.84e9            34.1           -116.  gass84 50c9509d-…
#>  5 Heli… 1.82e9            56.6             16.6 cdrou… 38b4c89f-…
#>  6 Heli… 1.81e9            25.7           -100.  cdrou… 50c9509d-…
#>  7 Heli… 1.82e9            56.6             16.4 cdrou… 38b4c89f-…
#>  8 Heli… 1.81e9            32.0           -102.  cdrou… 50c9509d-…
#>  9 Heli… 1.84e9            33.9           -117.  cdrou… 50c9509d-…
#> 10 Heli… 1.84e9             0                0   cucdm… d2470ef8-…
#> # ... with 89 more rows, and 91 more variables: publishingOrgKey <chr>,
#> #   networkKeys <chr>, installationKey <chr>, publishingCountry <chr>,
#> #   protocol <chr>, lastCrawled <chr>, lastParsed <chr>, crawlId <int>,
#> #   extensions <chr>, basisOfRecord <chr>, taxonKey <int>,
#> #   kingdomKey <int>, phylumKey <int>, classKey <int>, orderKey <int>,
#> #   familyKey <int>, genusKey <int>, speciesKey <int>,
#> #   acceptedTaxonKey <int>, scientificName <chr>,
#> #   acceptedScientificName <chr>, kingdom <chr>, phylum <chr>,
#> #   order <chr>, family <chr>, genus <chr>, species <chr>,
…
Note also that we’ve set up occ_issues() so that you can pass in issue names without having to quote them, thereby speeding up data cleaning.

Next, we can remove data with certain issues just as easily by using a - sign in front of the variable, like this, removing data with issues depunl and mdatunl.

res %>%
  occ_issues(-depunl, -mdatunl)
#> Records found [42034] 
#> Records returned [100] 
#> No. unique hierarchies [1] 
#> No. media records [85] 
#> No. facets [0] 
#> Args [limit=100, offset=0, taxonKey=9206251, fields=all] 
#> # A tibble: 100 x 97
#>    name     key decimalLatitude decimalLongitude issues datasetKey
#>    <chr>  <int>           <dbl>            <dbl> <chr>  <chr>     
#>  1 Heli… 1.81e9            52.6             10.1 cdrou… 6ac3f774-…
#>  2 Heli… 1.81e9            25.6           -100.  cdrou… 50c9509d-…
#>  3 Heli… 1.82e9            59.8             17.5 gass8… 38b4c89f-…
#>  4 Heli… 1.84e9            34.1           -116.  gass84 50c9509d-…
#>  5 Heli… 1.82e9            56.6             16.6 cdrou… 38b4c89f-…
#>  6 Heli… 1.81e9            25.7           -100.  cdrou… 50c9509d-…
#>  7 Heli… 1.82e9            56.6             16.4 cdrou… 38b4c89f-…
#>  8 Heli… 1.81e9            32.0           -102.  cdrou… 50c9509d-…
#>  9 Heli… 1.84e9            33.9           -117.  cdrou… 50c9509d-…
#> 10 Heli… 1.84e9             0                0   cucdm… d2470ef8-…
#> # ... with 90 more rows, and 91 more variables: publishingOrgKey <chr>,
#> #   networkKeys <chr>, installationKey <chr>, publishingCountry <chr>,
#> #   protocol <chr>, lastCrawled <chr>, lastParsed <chr>, crawlId <int>,
#> #   extensions <chr>, basisOfRecord <chr>, taxonKey <int>,
#> #   kingdomKey <int>, phylumKey <int>, classKey <int>, orderKey <int>,
#> #   familyKey <int>, genusKey <int>, speciesKey <int>,
#> #   acceptedTaxonKey <int>, scientificName <chr>,
#> #   acceptedScientificName <chr>, kingdom <chr>, phylum <chr>,
#> #   order <chr>, family <chr>, genus <chr>, species <chr>,
…
